Project 1 Main
…
df_payroll_cleaned

## # A tibble: 592,431 x 18
##    fiscal_year payroll_number agency_name last_name first_name mid_init
##          <dbl>          <dbl> <chr>       <chr>     <chr>      <chr>   
##  1        2019              2 OFFICE OF  FULEIHAN  DEAN       A       
##  2        2019              2 OFFICE OF  DE BLASIO BILL       <NA>    
##  3        2019              2 OFFICE OF  PALACIO   HERMINIA   <NA>    
##  4        2019              2 OFFICE OF  ANGLIN    LAURA      L       
##  5        2019              2 OFFICE OF  THOMPSON  JAMES      P       
##  6        2019              2 OFFICE OF  WOLFE     EMILIA     M       
##  7        2019              2 OFFICE OF  GLAZER    ELIZABETH  <NA>    
##  8        2019              2 OFFICE OF  JOHN      ROXANNE    <NA>    
##  9        2019              2 OFFICE OF  WILLIAMS  DOMINIC    C       
## 10        2019              2 OFFICE OF  ABEYWARD PENNY      <NA>    
## #  with 592,421 more rows, and 12 more variables: agency_start_date <dttm>,
## #   work_location_borough <chr>, title_description <chr>,
## #   leave_status_as_of_july_31 <chr>, base_salary <dbl>, pay_basis <chr>,
## #   regular_hours <chr>, regular_gross_paid <dbl>, ot_hours <dbl>,
## #   total_ot_paid <dbl>, total_other_pay <dbl>, total_pay <dbl>
…
